material q1metal7_98d_256x256/SOLID/TEX/window_evil6a.jpg
{
	technique
	{
		pass
		{
			diffuse 0.800000 0.800000 0.800000
			specular 0.500000 0.500000 0.500000 12.500000
			texture_unit
			{
				texture window_evil6a.jpg
			}
		}
	}
}
material zinc/SOLID/TEX/zinc.jpg
{
	technique
	{
		pass
		{
			diffuse 0.800000 0.800000 0.800000
			specular 0.500000 0.500000 0.500000 12.500000
			texture_unit
			{
				texture zinc.jpg
			}
		}
	}
}
material purptileb/SOLID/TEX/purptileb.jpg
{
	technique
	{
		pass
		{
			diffuse 0.800000 0.800000 0.800000
			specular 0.500000 0.500000 0.500000 12.500000
			texture_unit
			{
				texture purptileb.jpg
			}
		}
	}
}
material q1metal7_99/SOLID/TEX/q1metal7_99.jpg
{
	technique
	{
		pass
		{
			diffuse 0.800000 0.800000 0.800000
			specular 0.500000 0.500000 0.500000 12.500000
			texture_unit
			{
				texture q1metal7_99.jpg
			}
		}
	}
}
material q1metal7_98d_256x256/SOLID/TEX/km_arena1tower4.jpg
{
	technique
	{
		pass
		{
			diffuse 0.800000 0.800000 0.800000
			specular 0.500000 0.500000 0.500000 12.500000
			texture_unit
			{
				texture km_arena1tower4.jpg
			}
		}
	}
}
material q1metal7_98d_256x256/SOLID/TEX/xstairtop5.jpg
{
	technique
	{
		pass
		{
			diffuse 0.800000 0.800000 0.800000
			specular 0.500000 0.500000 0.500000 12.500000
			texture_unit
			{
				texture xstairtop5.jpg
			}
		}
	}
}
material q1metal7_98d_256x256/SOLID/TEX/center2trn.tga
{
	technique
	{
		pass
		{
			diffuse 0.800000 0.800000 0.800000
			specular 0.500000 0.500000 0.500000 12.500000
			texture_unit
			{
				texture center2trn.tga
			}
		}
	}
}
material q1metal7_98d_256x256/SOLID/TEX/slateroofc.jpg
{
	technique
	{
		pass
		{
			diffuse 0.800000 0.800000 0.800000
			specular 0.500000 0.500000 0.500000 12.500000
			texture_unit
			{
				texture slateroofc.jpg
			}
		}
	}
}
material q1metal7_98d_256x256/SOLID/TEX/blocks17floor3.jpg
{
	technique
	{
		pass
		{
			diffuse 0.800000 0.800000 0.800000
			specular 0.500000 0.500000 0.500000 12.500000
			texture_unit
			{
				texture blocks17floor3.jpg
			}
		}
	}
}
material q1metal7_98d_256x256/SOLID/TEX/q1metal7_99spot.tga
{
	technique
	{
		pass
		{
			diffuse 0.800000 0.800000 0.800000
			specular 0.500000 0.500000 0.500000 12.500000
			texture_unit
			{
				texture q1metal7_99spot.tga
			}
		}
	}
}
material pitted_rust3/SOLID/TEX/pitted_rust3.jpg
{
	technique
	{
		pass
		{
			diffuse 0.800000 0.800000 0.800000
			specular 0.500000 0.500000 0.500000 12.500000
			texture_unit
			{
				texture pitted_rust3.jpg
			}
		}
	}
}
material q1metal7_98d_256x256/SOLID/TEX/columnsupportops.jpg
{
	technique
	{
		pass
		{
			diffuse 0.800000 0.800000 0.800000
			specular 0.500000 0.500000 0.500000 12.500000
			texture_unit
			{
				texture columnsupportops.jpg
			}
		}
	}
}
material blocks11b/SOLID/TEX/blocks11b.jpg
{
	technique
	{
		pass
		{
			diffuse 0.800000 0.800000 0.800000
			specular 0.500000 0.500000 0.500000 12.500000
			texture_unit
			{
				texture blocks11b.jpg
			}
		}
	}
}
material iron01_e/SOLID/TEX/iron01_e.jpg
{
	technique
	{
		pass
		{
			diffuse 0.800000 0.800000 0.800000
			specular 0.500000 0.500000 0.500000 12.500000
			texture_unit
			{
				texture iron01_e.jpg
			}
		}
	}
}
material q1metal7_98d_256x256/SOLID/TEX/gkc10.jpg
{
	technique
	{
		pass
		{
			diffuse 0.800000 0.800000 0.800000
			specular 0.500000 0.500000 0.500000 12.500000
			texture_unit
			{
				texture gkc10.jpg
			}
		}
	}
}
material q1metal7_98d_256x256/SOLID/TEX/largeblockfloor3.jpg
{
	technique
	{
		pass
		{
			diffuse 0.800000 0.800000 0.800000
			specular 0.500000 0.500000 0.500000 12.500000
			texture_unit
			{
				texture largeblockfloor3.jpg
			}
		}
	}
}
material q1metal7_98d_256x256/SOLID/TEX/baseboard09.jpg
{
	technique
	{
		pass
		{
			diffuse 0.800000 0.800000 0.800000
			specular 0.500000 0.500000 0.500000 12.500000
			texture_unit
			{
				texture baseboard09.jpg
			}
		}
	}
}
material q1metal7_98d_256x256/SOLID/TEX/archxiandm1b.jpg
{
	technique
	{
		pass
		{
			diffuse 0.800000 0.800000 0.800000
			specular 0.500000 0.500000 0.500000 12.500000
			texture_unit
			{
				texture archxiandm1b.jpg
			}
		}
	}
}
material iron01_m/SOLID/TEX/iron01_m.tga
{
	technique
	{
		pass
		{
			diffuse 0.800000 0.800000 0.800000
			specular 0.500000 0.500000 0.500000 12.500000
			texture_unit
			{
				texture iron01_m.tga
			}
		}
	}
}
material xstairtop4/SOLID/TEX/xstairtop4.jpg
{
	technique
	{
		pass
		{
			diffuse 0.800000 0.800000 0.800000
			specular 0.500000 0.500000 0.500000 12.500000
			texture_unit
			{
				texture xstairtop4.jpg
			}
		}
	}
}
material q1metal7_98d_256x256/SOLID/TEX/q1metal7_98d_256x256.jpg
{
	technique
	{
		pass
		{
			diffuse 0.800000 0.800000 0.800000
			specular 0.500000 0.500000 0.500000 12.500000
			texture_unit
			{
				texture q1metal7_98d_256x256.jpg
			}
		}
	}
}
material q1metal7_98d_256x256/SOLID/TEX/metalsupport4.jpg
{
	technique
	{
		pass
		{
			diffuse 0.800000 0.800000 0.800000
			specular 0.500000 0.500000 0.500000 12.500000
			texture_unit
			{
				texture metalsupport4.jpg
			}
		}
	}
}
material killblock_i3/SOLID/TEX/killblock_i3.jpg
{
	technique
	{
		pass
		{
			diffuse 0.800000 0.800000 0.800000
			specular 0.500000 0.500000 0.500000 12.500000
			texture_unit
			{
				texture killblock_i3.jpg
			}
		}
	}
}
material q1metal7_98d_256x256/SOLID/TEX/baseboard09_l.jpg
{
	technique
	{
		pass
		{
			diffuse 0.800000 0.800000 0.800000
			specular 0.500000 0.500000 0.500000 12.500000
			texture_unit
			{
				texture baseboard09_l.jpg
			}
		}
	}
}
material q1metal7_98d_256x256/SOLID/TEX/xq1metalbig_ow.tga
{
	technique
	{
		pass
		{
			diffuse 0.800000 0.800000 0.800000
			specular 0.500000 0.500000 0.500000 12.500000
			texture_unit
			{
				texture xq1metalbig_ow.tga
			}
		}
	}
}
material metalbridge06/SOLID/TEX/metalbridge06.jpg
{
	technique
	{
		pass
		{
			diffuse 0.800000 0.800000 0.800000
			specular 0.500000 0.500000 0.500000 12.500000
			texture_unit
			{
				texture metalbridge06.jpg
			}
		}
	}
}
material q1metal7_98d_256x256/SOLID/TEX/columnsupportbottoms.jpg
{
	technique
	{
		pass
		{
			diffuse 0.800000 0.800000 0.800000
			specular 0.500000 0.500000 0.500000 12.500000
			texture_unit
			{
				texture columnsupportbottoms.jpg
			}
		}
	}
}
material streetbricks10/SOLID/TEX/streetbricks10.jpg
{
	technique
	{
		pass
		{
			diffuse 0.800000 0.800000 0.800000
			specular 0.500000 0.500000 0.500000 12.500000
			texture_unit
			{
				texture streetbricks10.jpg
			}
		}
	}
}
material xstepborder3/SOLID/TEX/xstepborder3.jpg
{
	technique
	{
		pass
		{
			diffuse 0.800000 0.800000 0.800000
			specular 0.500000 0.500000 0.500000 12.500000
			texture_unit
			{
				texture xstepborder3.jpg
			}
		}
	}
}
material computerpurptileb/SOLID/TEX/computerpurptileb.jpg
{
	technique
	{
		pass
		{
			diffuse 0.800000 0.800000 0.800000
			specular 0.500000 0.500000 0.500000 12.500000
			texture_unit
			{
				texture computerpurptileb.jpg
			}
		}
	}
}
