material <Black>
{
   technique
   {
      pass
      {
         diffuse 0.0 0.0 0.0 1.0
      }
   }
}
material <DarkGoldenrod>
{
   technique
   {
      pass
      {
         diffuse 0.72156862745098 0.525490196078431 0.0431372549019608 1.0
      }
   }
}
material <Gray6>
{
   technique
   {
      pass
      {
         diffuse 0.376470588235294 0.376470588235294 0.376470588235294 1.0
      }
   }
}
material <Beige>1
{
   technique
   {
      pass
      {
         diffuse 0.827450980392157 0.741176470588235 0.564705882352941 1.0
      }
   }
}
material <Brown>
{
   technique
   {
      pass
      {
         diffuse 0.466666666666667 0.345098039215686 0.211764705882353 1.0
      }
   }
}
material <Charcoal>
{
   technique
   {
      pass
      {
         diffuse 0.137254901960784 0.137254901960784 0.137254901960784 1.0
      }
   }
}
material <Redwood>
{
   technique
   {
      pass
      {
         diffuse 0.654901960784314 0.396078431372549 0.32156862745098 1.0
      }
   }
}
material jean_blue
{
   technique
   {
      pass
      {
         diffuse 0.141176470588235 0.184313725490196 0.258823529411765 1.0
      }
   }
}
material Revêtement_bardage_havane
{
   technique
   {
      pass
      {
         30.0, 30.0
         diffuse 1 1 1 1.0
         texture_unit
         {
            texture Cladding_Siding_Tan.jpg
         }
      }
   }
}
material Pierre_maçonnerie_multi
{
   technique
   {
      pass
      {
         47.0, 32.0
         diffuse 1 1 1 1.0
         texture_unit
         {
            texture Stone_Masonry_Multi.jpg
         }
      }
   }
}
material Pierre_marbrée_gris
{
   technique
   {
      pass
      {
         48.0, 48.0
         diffuse 1 1 1 1.0
         texture_unit
         {
            texture Stone_Vein_Gray.jpg
         }
      }
   }
}
material Pierre_grès_pierre_de_taille_clair
{
   technique
   {
      pass
      {
         72.0, 36.0
         diffuse 1 1 1 1.0
         texture_unit
         {
            texture Stone_Sandstone_Ashlar_Light.jpg
         }
      }
   }
}
material Pierre_pavés_dalle_gris
{
   technique
   {
      pass
      {
         72.0, 96.0
         diffuse 1 1 1 1.0
         texture_unit
         {
            texture Stone_Pavers_Flagstone_Gray.jpg
         }
      }
   }
}
material Pierre_marbre
{
   technique
   {
      pass
      {
         48.0, 48.0
         diffuse 1 1 1 1.0
         texture_unit
         {
            texture Stone_Marble.jpg
         }
      }
   }
}
material Pierre_kaki_brossé
{
   technique
   {
      pass
      {
         24.0, 24.0
         diffuse 1 1 1 1.0
         texture_unit
         {
            texture Stone_Brushed_Khaki.jpg
         }
      }
   }
}
material Clôture_bois_ancienne
{
   technique
   {
      pass
      {
         36.0, 46.5625
         diffuse 1 1 1 1.0
         texture_unit
         {
            texture Fencing_Wood_Old.jpg
         }
      }
   }
}
material Couverture-toit_ardoise_havane
{
   technique
   {
      pass
      {
         32.0, 32.0
         diffuse 1 1 1 1.0
         texture_unit
         {
            texture Roofing_Slate_Tan.jpg
         }
      }
   }
}
material Sol_sable_lisse
{
   technique
   {
      pass
      {
         39.6456692913386, 39.6456692913386
         diffuse 1 1 1 1.0
         texture_unit
         {
            texture Groundcover_Sand_Smooth.jpg
         }
      }
   }
}
material Métal_panneau
{
   technique
   {
      pass
      {
         24.0, 24.0
         diffuse 1 1 1 1.0
         texture_unit
         {
            texture Metal_Panel.jpg
         }
      }
   }
}
material Carreau_hexagone_blanc
{
   technique
   {
      pass
      {
         88.7155484087415, 78.8582677165354
         diffuse 1 1 1 1.0
         texture_unit
         {
            texture Tile_Hexagon_White.jpg
         }
      }
   }
}
material Brique_pavés_modulaire
{
   technique
   {
      pass
      {
         78.7401574803149, 78.7401574803149
         diffuse 1 1 1 1.0
         texture_unit
         {
            texture Brick_Pavers_Modular.jpg
         }
      }
   }
}
material Bois_planche_liège
{
   technique
   {
      pass
      {
         10.0, 10.0
         diffuse 1 1 1 1.0
         texture_unit
         {
            texture Wood_Board_Cork.jpg
         }
      }
   }
}
material Bois_contreplaqué_noeuds
{
   technique
   {
      pass
      {
         66.0, 66.0
         diffuse 1 1 1 1.0
         texture_unit
         {
            texture Wood_Plywood_Knots.jpg
         }
      }
   }
}
material Bois_sol_clair
{
   technique
   {
      pass
      {
         120.0, 48.0
         diffuse 1 1 1 1.0
         texture_unit
         {
            texture Wood_Floor_Light.jpg
         }
      }
   }
}
material Végétation_robinier
{
   technique
   {
      pass
      {
         118.110236220472, 118.110236220472
         diffuse 1 1 1 1.0
         texture_unit
         {
            texture Vegetation_HoneyLocust.jpg
         }
      }
   }
}
material Végétation_écorce_érable
{
   technique
   {
      pass
      {
         39.3700787401575, 78.7401574803149
         diffuse 1 1 1 1.0
         texture_unit
         {
            texture Vegetation_Bark_Maple.jpg
         }
      }
   }
}
material Sol_galets_4pouces
{
   technique
   {
      pass
      {
         78.7401574803149, 78.7401574803149
         diffuse 1 1 1 1.0
         texture_unit
         {
            texture Groundcover_RiverRock_4inch.jpg
         }
      }
   }
}
material Sol_gravier_1pouce
{
   technique
   {
      pass
      {
         18.0, 18.0
         diffuse 1 1 1 1.0
         texture_unit
         {
            texture Groundcover_Gravel_1inch.jpg
         }
      }
   }
}
material Béton_forme_4x8
{
   technique
   {
      pass
      {
         48.0, 96.0
         diffuse 1 1 1 1.0
         texture_unit
         {
            texture Concrete_Form_4x8.jpg
         }
      }
   }
}
material Béton_bloc_soutènement_gris
{
   technique
   {
      pass
      {
         78.7401574803149, 39.3700787401575
         diffuse 1 1 1 1.0
         texture_unit
         {
            texture Concrete_Block_Retaining_Gray.jpg
         }
      }
   }
}
material Carreau_céramique_multi
{
   technique
   {
      pass
      {
         88.5826771653543, 59.0551181102362
         diffuse 1 1 1 1.0
         texture_unit
         {
            texture Tile_Ceramic_Multi.jpg
         }
      }
   }
}
material Métal_brut
{
   technique
   {
      pass
      {
         8.0, 8.0
         diffuse 1 1 1 1.0
         texture_unit
         {
            texture Metal_Rough.jpg
         }
      }
   }
}
material 0137_Noir
{
   technique
   {
      pass
      {
         diffuse 0.0 0.0 0.0 1.0
      }
   }
}
material [Vegetation_HoneyLocust]1
{
   technique
   {
      pass
      {
         39.3700787401575, 39.3700787401575
         diffuse 1 1 1 1.0
         texture_unit
         {
            texture Vegetation_HoneyLocust.jpg
         }
      }
   }
}
material Esquisse_pierre_de_taille
{
   technique
   {
      pass
      {
         48.0, 48.0
         diffuse 1 1 1 1.0
         texture_unit
         {
            texture Sketchy_Stone_Ashlar.jpg
         }
      }
   }
}
material Végétation_herbe1
{
   technique
   {
      pass
      {
         39.3700787401575, 39.3700787401575
         diffuse 1 1 1 1.0
         texture_unit
         {
            texture Vegetation_Grass1.jpg
         }
      }
   }
}
material Métal_ondulé_brillant
{
   technique
   {
      pass
      {
         39.4488188976378, 39.4488188976378
         diffuse 1 1 1 1.0
         texture_unit
         {
            texture Metal_Corrogated_Shiny.jpg
         }
      }
   }
}
material Métal_acier_texturé_blanc
{
   technique
   {
      pass
      {
         27.6377952755905, 27.6377952755905
         diffuse 1 1 1 1.0
         texture_unit
         {
            texture Metal_Steel_Textured_White.jpg
         }
      }
   }
}
material Métal_joint
{
   technique
   {
      pass
      {
         18.0, 18.0
         diffuse 1 1 1 1.0
         texture_unit
         {
            texture Metal_Seamed.jpg
         }
      }
   }
}
material Métal_acier_texturé
{
   technique
   {
      pass
      {
         24.0, 24.0
         diffuse 1 1 1 1.0
         texture_unit
         {
            texture Metal_Steel_Textured.jpg
         }
      }
   }
}
material [Metal_Steel_Textured_White]1
{
   technique
   {
      pass
      {
         27.5590551181102, 27.5590551181102
         diffuse 1 1 1 1.0
         texture_unit
         {
            texture Metal_Steel_Textured_White.jpg
         }
      }
   }
}
material Végétation_flou3
{
   technique
   {
      pass
      {
         36.0, 36.0
         diffuse 1 1 1 1.0
         texture_unit
         {
            texture Vegetation_Blur3.jpg
         }
      }
   }
}
material Végétation_flou5
{
   technique
   {
      pass
      {
         13.0, 13.0
         diffuse 1 1 1 1.0
         texture_unit
         {
            texture Vegetation_Blur5.jpg
         }
      }
   }
}
material Végétation_genévrier2
{
   technique
   {
      pass
      {
         24.0, 24.0
         diffuse 1 1 1 1.0
         texture_unit
         {
            texture Vegetation_Juniper2.jpg
         }
      }
   }
}
material Clôture_lattis_naturel
{
   technique
   {
      pass
      {
         19.7637795275591, 19.7637795275591
         diffuse 1 1 1 1.0
         texture_unit
         {
            texture Fencing_Lattice_Natural.png
         }
      }
   }
}
material Stores_bois_blanc
{
   technique
   {
      pass
      {
         36.0, 2.390625
         diffuse 1 1 1 1.0
         texture_unit
         {
            texture Blinds_Wood_White.jpg
         }
      }
   }
}
material Bois_bambou_moyen
{
   technique
   {
      pass
      {
         24.0, 24.0
         diffuse 1 1 1 1.0
         texture_unit
         {
            texture Wood_Bamboo_Medium.jpg
         }
      }
   }
}
material Clôture_rampe_métal2
{
   technique
   {
      pass
      {
         60.6299212598425, 60.6299212598425
         diffuse 1 1 1 1.0
         texture_unit
         {
            texture Fencing_Railing_Metal2.png
         }
      }
   }
}
material Clôture_usée
{
   technique
   {
      pass
      {
         36.0, 36.0
         diffuse 1 1 1 1.0
         texture_unit
         {
            texture Fencing_Weathered.jpg
         }
      }
   }
}
material SketchupDefault
{
   technique
   {
      pass
      {
         diffuse 1.0 1.0 1.0
      }
   }
}
